[
    {
        "_id": "59e4a2e4995f03f046c7889d",
        "name": "8454da4b-8e27-479a-b4e9-6f5f3d081960.png",
        "url": "images/8454da4b-8e27-479a-b4e9-6f5f3d081960.png",
        "width": "350",
        "height": "584"
    },
    {
        "_id": "59e4a2e4995f03f046c7889e",
        "name": "4c9437ae-3ca0-4ec3-8434-d7d9d6f816f5.png",
        "url": "images/4c9437ae-3ca0-4ec3-8434-d7d9d6f816f5.png",
        "width": "474",
        "height": "678"
    },
    {
        "_id": "59e4a2e4995f03f046c7889f",
        "name": "b506495b-c975-438e-b2ab-ff2bbb413bc8.png",
        "url": "images/b506495b-c975-438e-b2ab-ff2bbb413bc8.png",
        "width": "524",
        "height": "504"
    },
    {
        "_id": "59e4a2e4995f03f046c788a0",
        "name": "2247fbef-6dc7-4ff8-80a4-11a8d1d888cf.png",
        "url": "images/2247fbef-6dc7-4ff8-80a4-11a8d1d888cf.png",
        "width": "488",
        "height": "632"
    },
    {
        "_id": "59e4a2e4995f03f046c788a1",
        "name": "78a42e58-e59b-41ef-94b1-e7488be8d3b7.png",
        "url": "images/78a42e58-e59b-41ef-94b1-e7488be8d3b7.png",
        "width": "348",
        "height": "582"
    },
    {
        "_id": "59e4a2e4995f03f046c788a2",
        "name": "f7ee416b-7156-4594-a016-b574a19e2205.png",
        "url": "images/f7ee416b-7156-4594-a016-b574a19e2205.png",
        "width": "754",
        "height": "458"
    }
]
